{
  "type": "service_account",
  "project_id": "gisla-epi-pi",
  "private_key_id": "82c4ca2672758037325c0d7005f5cd572d60314d",
  "private_key": "-----BEGIN PRIVATE KEY-----\nMIIEuwIBADANBgkqhkiG9w0BAQEFAASCBKUwggShAgEAAoIBAQC0x91UQcdmihIJ\nyjIRibfutnkiJZ+JgL6iz+9xcu8Licreu4+ePex7j+ya0kYqsnpsnrBWWuB0cn8c\n0HGczmET8TjdL0yzJBy8lQQIfpM2EQ85rTE8Kn+3bygL6wRhyzJJXH6veLSTleds\nYCmCZEbJCklyYcWBixgAS1emWX1Crqf5iJbJq+6cv6Ww+FXBSlNggZz2p4JopFYC\njGQzvfahBU08qOyUpdRnSdwspA9zmGiOCQqBTRkrdanXqo03bs/hKNC50PFjRcAU\nfE3I0Lfq6UgttEELDEJOocHNWH42MGmfuYNMx10+0yUb7MHSPtU9lzfQHEeZVT7B\n1ZKVoK4ZAgMBAAECggEAAn+AhdmJPj5KLlIM8kRLT/eIu2AQHeZMvBM2sjdt9jFB\nP5kRf8fhrK0G2ymf4cpb+eqqpSBvjMX7dUdFsQg11ZpPuHHrrWeiV58quLNT29UA\nhA63AqdtSSuc2HO268lsnt1LiUExvZhX4+qwQcA0LWYzympvc3E1ZuU9OmwIi+Ae\na4RjO+dGj28056+bW3oJxKLKPCAvoJOzmQGXMh0zduDirOekcHNIACOLBNQ3koOO\njiSyO+M4/WtM7vJnSKFd6p3c7L006pcyAbCwMXdB3FnqKrEFIjQfxOCGhaypzWDS\nRzRbouJDs7E/D2TKQeLhkk3B3sO/mNIlXuX3zy3VwQKBgQDgXxmexGyQTA9ScHBJ\n5KcXW4mpRNzGRsG3pqP7vPA9tdk9bV1hv+9v9FDNrTWunwRRRXNJptjtcoIv6RXS\ndeifK1EEQpojBVm4Bh2SL3ZpeZsL5t9FqH9G0/Ryvhh9RIiliC/FZFxCHyYYpz+2\noup4pHu+jQL51XcTGAI0zdbh6wKBgQDOQ7QSK+NO2XYb7r9FViMb1DBbH+uYozSp\nPX6DdY+JoZMyzxeZuwKz/bsamsjzR+8nFenGHakRTs4s28WgHg+lojr7OKWaaPjA\ny5KqtRkjz6xHo455HeX6vnAxQ7h2apTd3ZPLPSOXLae/YmZ4kAZ+aVqFGbVbZjO2\nrPPYQTerCwKBgQCWci4Tr1G8T8PWW15vrcn8d3yO64W9zaQHKM279qyANHc+IR8E\ndFZwkzm7L/FW7XlPpWnwcNf0H1v8FCZ1wGoCkGD6ok4IPYYzRqZ9ZyXXA5tbF6uO\nYbU2INlANwbkuBeIJxEhInJaQ9ifn0WxiPv/eQsgch0UuHXnb6nLDlqPkQJ/GPoZ\n1Bl8bQ/oPXmrr7m+hqArOt2iqdkZh2Tq7QBPYVsvd/eb5AHBUgpnndEghFUxoIoG\nxPbSgkYIsWXriHgbbPM4MTOq2gfcF3yPRhyn7q43LnWfywrTzolBDLYmoDBH1pX+\nT54XsTbWGVbREchfAO/BBl0WmPrHSFepL4a2NwKBgDGD6xZ18WqUZVjAhymLd5Nx\n2CB9118WCKBFOvhO+lpCp+dAc36czBu/E00QSg65eiEQA2MheEXzNqVQXiaD1jbY\nasRtXlOqCRJ2Y0ePRNyDrXPgkM+pQ40Y/wBxaahFv5eYzFwZ7prWntE6u0+nRUte\nS13By42LIXJchZunk/BV\n-----END PRIVATE KEY-----\n",
  "client_email": "firebase-adminsdk-gkxq1@gisla-epi-pi.iam.gserviceaccount.com",
  "client_id": "112305158537639463059",
  "auth_uri": "https://accounts.google.com/o/oauth2/auth",
  "token_uri": "https://oauth2.googleapis.com/token",
  "auth_provider_x509_cert_url": "https://www.googleapis.com/oauth2/v1/certs",
  "client_x509_cert_url": "https://www.googleapis.com/robot/v1/metadata/x509/firebase-adminsdk-gkxq1%40gisla-epi-pi.iam.gserviceaccount.com"
}
